Paper
…
Do some basic preprocessing

Assign ids

Calculate age from birth year

Add scaled frequencies

(df_a <- 
    read_delim("data/apr13.txt", delim = "\t") %>% 
    rename(name_suffix = name_sufx_cd) %>% 
    mutate_if(is.character, str_squish) %>% 
    mutate(id_a = row_number()))

## # A tibble: 16,271 x 71
##    county_id county_desc voter_reg_num status_cd voter_status_desc
##        <int> <chr>       <chr>         <chr>     <chr>            
##  1       100 YANCEY      000000014683  A         ACTIVE           
##  2       100 YANCEY      000000014722  A         ACTIVE           
##  3       100 YANCEY      000000010135  A         ACTIVE           
##  4       100 YANCEY      000000022654  A         ACTIVE           
##  5       100 YANCEY      000000020123  R         REMOVED          
##  6       100 YANCEY      000000017105  R         REMOVED          
##  7       100 YANCEY      000000014537  A         ACTIVE           
##  8       100 YANCEY      000000019234  A         ACTIVE           
##  9       100 YANCEY      000000002043  A         ACTIVE           
## 10       100 YANCEY      000000019138  A         ACTIVE           
## # ... with 16,261 more rows, and 66 more variables: reason_cd <chr>,
## #   voter_status_reason_desc <chr>, absent_ind <chr>, name_prefx_cd <chr>,
## #   last_name <chr>, first_name <chr>, midl_name <chr>, name_suffix <chr>,
## #   res_street_address <chr>, res_city_desc <chr>, state_cd <chr>,
## #   zip_code <int>, mail_addr1 <chr>, mail_addr2 <chr>, mail_addr3 <chr>,
## #   mail_addr4 <chr>, mail_city <chr>, mail_state <chr>,
## #   mail_zipcode <int>, full_phone_number <chr>, race_code <chr>,
## #   ethnic_code <chr>, party_cd <chr>, gender_code <chr>, birth_age <int>,
## #   birth_place <chr>, registr_dt <chr>, precinct_abbrv <chr>,
…
(df_b <- 
    read_delim("data/mar17.txt", delim = "\t") %>% 
    rename(name_suffix = name_suffix_lbl) %>% 
    mutate_if(is.character, str_squish) %>% 
    mutate(id_b = row_number()))

## # A tibble: 16,276 x 72
##    county_id county_desc voter_reg_num status_cd voter_status_desc
##        <int> <chr>       <chr>         <chr>     <chr>            
##  1       100 YANCEY      000000026581  A         ACTIVE           
##  2       100 YANCEY      000000014683  A         ACTIVE           
##  3       100 YANCEY      000000014722  A         ACTIVE           
##  4       100 YANCEY      000000010135  A         ACTIVE           
##  5       100 YANCEY      000000025582  A         ACTIVE           
##  6       100 YANCEY      000000022654  I         INACTIVE         
##  7       100 YANCEY      000000020123  R         REMOVED          
##  8       100 YANCEY      000000026587  A         ACTIVE           
##  9       100 YANCEY      000000017105  R         REMOVED          
## 10       100 YANCEY      000000026924  A         ACTIVE           
## # ... with 16,266 more rows, and 67 more variables: reason_cd <chr>,
## #   voter_status_reason_desc <chr>, absent_ind <chr>, name_prefx_cd <chr>,
## #   last_name <chr>, first_name <chr>, middle_name <chr>,
## #   name_suffix <chr>, res_street_address <chr>, res_city_desc <chr>,
## #   state_cd <chr>, zip_code <int>, mail_addr1 <chr>, mail_addr2 <chr>,
## #   mail_addr3 <chr>, mail_addr4 <chr>, mail_city <chr>, mail_state <chr>,
## #   mail_zipcode <chr>, full_phone_number <dbl>, race_code <chr>,
## #   ethnic_code <chr>, party_cd <chr>, gender_code <chr>, birth_age <int>,
## #   birth_state <chr>, drivers_lic <chr>, registr_dt <chr>,
…
(df_a_mod <- 
  df_a %>% 
  preprocess_data())

## # A tibble: 16,271 x 10
##     id_a fname   lname     birth_age gender_code race_code voter_reg_num
##    <int> <chr>   <chr>         <int> <chr>       <chr>     <chr>        
##  1     1 KAREN   ABERNATHY        62 F           W         000000014683 
##  2     2 TRAVIS  ABERNATHY        70 M           W         000000014722 
##  3     3 RONALD  ABRAHAM          63 M           W         000000010135 
##  4     4 DARCI   ABRAMS           33 F           W         000000022654 
##  5     5 LYDIA   ABRAMS           44 F           W         000000020123 
##  6     6 JOSHUA  ACUFF            27 M           W         000000017105 
##  7     7 BARBARA ADAMS            65 F           W         000000014537 
##  8     8 CAROLYN ADAMS            63 F           W         000000019234 
##  9     9 DAVID   ADAMS            57 M           W         000000002043 
## 10    10 JESSICA ADAMS            34 F           W         000000019138 
## # ... with 16,261 more rows, and 3 more variables: birth_year <dbl>,
## #   ffreq <dbl>, lfreq <dbl>

(df_b_mod <- 
    df_b %>% 
    preprocess_data(year_a = F))

## # A tibble: 16,276 x 10
##     id_b fname   lname     birth_age gender_code race_code voter_reg_num
##    <int> <chr>   <chr>         <int> <chr>       <chr>     <chr>        
##  1     1 PAMELA  ABARE            49 F           W         000000026581 
##  2     2 KAREN   ABERNATHY        66 F           W         000000014683 
##  3     3 TRAVIS  ABERNATHY        73 M           W         000000014722 
##  4     4 RONALD  ABRAHAM          67 M           W         000000010135 
##  5     5 BRIAN   ABRAM            36 M           W         000000025582 
##  6     6 DARCI   ABRAMS           36 F           W         000000022654 
##  7     7 LYDIA   ABRAMS           48 F           W         000000020123 
##  8     8 MALINDA ACHARD           43 F           W         000000026587 
##  9     9 JOSHUA  ACUFF            31 M           W         000000017105 
## 10    10 BARBARA ADAMS            78 F           W         000000026924 
## # ... with 16,266 more rows, and 3 more variables: birth_year <dbl>,
## #   ffreq <dbl>, lfreq <dbl>
…
Extract exact matches

Extract voter id matches

Filter out exact matches from voter id matches -> matches

(df_exact_matches <- 
    df_a_mod %>% 
    select(id_a, fname, lname, birth_year, gender_code, race_code) %>% 
    inner_join(df_b_mod %>% 
                 select(id_b, fname, lname, birth_year, gender_code, race_code)) %>% 
    select(starts_with("id")))

## # A tibble: 12,502 x 2
##     id_a  id_b
##    <int> <int>
##  1     1     2
##  2     3     4
##  3     5     7
##  4     6     9
##  5     7    11
##  6     8    12
##  7    14    17
##  8    15    19
##  9    17    20
## 10    18    21
## # ... with 12,492 more rows

(df_vrn_matches <- 
  df_a_mod %>% 
  select(id_a, voter_reg_num) %>% 
  inner_join(df_b_mod %>% 
               select(id_b, voter_reg_num), 
             by = "voter_reg_num") %>% 
  select(starts_with("id")) %>% 
  mutate(match = "match") %>% 
  distinct())

## # A tibble: 13,495 x 3
##     id_a  id_b match
##    <int> <int> <chr>
##  1     1     2 match
##  2     2     3 match
##  3     3     4 match
##  4     4     6 match
##  5     5     7 match
##  6     6     9 match
##  7     7    11 match
##  8     8    12 match
##  9    10 11572 match
## 10    12    15 match
## # ... with 13,485 more rows
…
data_path <- "data/paper/"
data_path_file <- function(file_name) glue("{data_path}{file_name}")

if(dir_exists(data_path)){
  dir_create(data_path)
}

(df_matches_unexact %>% 
  write_rds(data_path_file("df_matches_unexact.rds")))

## # A tibble: 1,271 x 22
##     id_a  id_b match fname_a lname_a birth_age_a gender_code_a race_code_a
##    <int> <int> <chr> <chr>   <chr>         <int> <chr>         <chr>      
##  1     2     3 match TRAVIS  ABERNA          70 M             W          
##  2     4     6 match DARCI   ABRAMS           33 F             W          
##  3    10 11572 match JESSICA ADAMS            34 F             W          
##  4    12    15 match KELSEY  ADAMS            22 F             W          
##  5    20    22 match CONNIE  ADKINS           52 F             W          
##  6    27  6956 match FELICIA ADKINS           51 F             W          
##  7    44 12560 match STACY   ADKINS           35 F             W          
##  8    51    48 match BETHANY ADKINS          30 F             W          
##  9    62    57 match KELLY   AKINS            39 F             W          
## 10    85    82 match AMBER   ALLEN            37 F             W          
## # ... with 1,261 more rows, and 14 more variables: voter_reg_num_a <chr>,
## #   birth_year_a <dbl>, ffreq_a <dbl>, lfreq_a <dbl>, fname_b <chr>,
## #   lname_b <chr>, birth_age_b <int>, gender_code_b <chr>,
## #   race_code_b <chr>, voter_reg_num_b <chr>, birth_year_b <dbl>,
## #   ffreq_b <dbl>, lfreq_b <dbl>, pair_id <int>
…
(df_unmatches_unexact %>% 
  write_rds(data_path_file("df_unmatches_unexact.rds")))

## # A tibble: 6,347 x 22
##     id_a  id_b fname_a lname_a   birth_age_a gender_code_a race_code_a
##    <int> <int> <chr>   <chr>           <int> <chr>         <chr>      
##  1     2     3 TRAVIS  ABERNATHY          70 M             W          
##  2     2   626 TRAVIS  ABERNATHY          70 M             W          
##  3     2   799 TRAVIS  ABERNATHY          70 M             W          
##  4     2  1982 TRAVIS  ABERNATHY          70 M             W          
##  5     2  2113 TRAVIS  ABERNATHY          70 M             W          
##  6     4     6 DARCI   ABRAMS             33 F             W          
##  7     4  9757 DARCI   ABRAMS             33 F             W          
##  8     4  1080 DARCI   ABRAMS             33 F             W          
##  9     4  2265 DARCI   ABRAMS             33 F             W          
## 10     4  2398 DARCI   ABRAMS             33 F             W          
## # ... with 6,337 more rows, and 15 more variables: voter_reg_num_a <chr>,
## #   birth_year_a <dbl>, ffreq_a <dbl>, lfreq_a <dbl>, fname_b <chr>,
## #   lname_b <chr>, birth_age_b <int>, gender_code_b <chr>,
## #   race_code_b <chr>, voter_reg_num_b <chr>, birth_year_b <dbl>,
## #   ffreq_b <dbl>, lfreq_b <dbl>, pair_id <dbl>, match <chr>

Pair Generation

set.seed(1)
df_pairs <- 
  df_unmatches_unexact %>%
  bind_rows(df_matches_unexact) %>% 
  sample_n((nrow(.)))

(df_pairs %>% 
  write_rds(data_path_file("df_pairs.rds")))

## # A tibble: 7,618 x 22
##     id_a  id_b fname_a      lname_a  birth_age_a gender_code_a race_code_a
##    <int> <int> <chr>        <chr>          <int> <chr>         <chr>      
##  1  4730  4650 DARRELL      FORBES            49 M             W          
##  2  7031  4254 GARRY        HOPSON            43 M             W          
##  3 10995  4867 CARMON       PETERSON          57 M             W          
##  4  7090  7129 LISA         HOUSLEY           38 F             W          
##  5  3576  3621 NORWOOD      CUMMINS          72 M             W          
##  6  6037  6093 CHARLES      HARRIS            84 M             W          
##  7 10527 10552 AMANDA       NORTON            28 F             W          
##  8 12752   153 MARGARET -  RUTKOWS          31 F             W          
##  9 12166  7935 MARTHA       RIDDLE            74 F             W          
## 10  1151   283 AMANDA       BENNETT           66 F             W          
## # ... with 7,608 more rows, and 15 more variables: voter_reg_num_a <chr>,
## #   birth_year_a <dbl>, ffreq_a <dbl>, lfreq_a <dbl>, fname_b <chr>,
## #   lname_b <chr>, birth_age_b <int>, gender_code_b <chr>,
## #   race_code_b <chr>, voter_reg_num_b <chr>, birth_year_b <dbl>,
## #   ffreq_b <dbl>, lfreq_b <dbl>, pair_id <dbl>, match <chr>

(df_pairs %>% 
  vectors_to_pairs())

## # A tibble: 15,236 x 12
##    pair_id fname   lname     gender_code race_code birth_year match    id
##      <dbl> <chr>   <chr>     <chr>       <chr>          <dbl> <chr> <int>
##  1       1 TRAVIS  ABERNATHY M           W               1943 match     2
##  2       1 TRAVIS  ABERNATHY M           W               1944 match     3
##  3       2 DARCI   ABRAMS    F           W               1980 match     4
##  4       2 DARCI   ABRAMS    F           W               1981 match     6
##  5       3 JESSICA ADAMS     F           W               1979 match    10
##  6       3 JESSICA RAHN      F           W               1979 match 11572
##  7       4 KELSEY  ADAMS     F           W               1991 match    12
##  8       4 KELSEY  ADAMS     F           W               1992 match    15
##  9       5 CONNIE  ADKINS    F           W               1961 match    20
## 10       5 CONNIE  ADKINS    F           W               1962 match    22
## # ... with 15,226 more rows, and 4 more variables: birthge_a <int>,
## #   voter_reg_num <chr>, ffreq <dbl>, lfreq <dbl>
…
